exercise-05
…
mv<-read_csv("IMDB-movies.csv", col_names = TRUE)

Rows: 28938 Columns: 10
── Column specification ────────────────────────────────────────────────────────
Delimiter: ","
chr (6): tconst, titleType, primaryTitle, genres, nconst, director
dbl (4): startYear, runtimeMinutes, averageRating, numVotes

ℹ Use `spec()` to retrieve the full column specification for this data.
ℹ Specify the column types or set `show_col_types = FALSE` to quiet this message.

mv

# A tibble: 28,938 × 10
   tconst   titleType primaryTitle startYear runtimeMinutes genres averageRating
   <chr>    <chr>     <chr>            <dbl>          <dbl> <chr>          <dbl>
 1 tt00021… movie     Dante's Inf…      1911             68 Adven…           7  
 2 tt00028… movie     Fantômas: I…      1913             54 Crime…           7  
 3 tt00030… movie     Fantomas: T…      1913             61 Crime…           7  
 4 tt00031… movie     Fantômas: T…      1913             90 Crime…           7  
 5 tt00034… movie     The Student…      1913             85 Drama…           6.5
 6 tt00036… movie     The Avengin…      1914             78 Crime…           6.5
 7 tt00037… movie     Cabiria           1914            148 Adven…           7.1
 8 tt00039… movie     Fantomas: T…      1914             59 Crime…           6.9
 9 tt00041… movie     Judith of B…      1914             61 Drama            6.2
10 tt00047… movie     Tillie's Pu…      1914             82 Comedy           6.3
# ℹ 28,928 more rows
# ℹ 3 more variables: numVotes <dbl>, nconst <chr>, director <chr>
…
HINT: Use {dplyr} functions and the pipe operator!

library(dplyr)
  mv_filt <- mv |> filter(startYear>=1920 & startYear <= 1979) |> filter(runtimeMinutes >=60 & runtimeMinutes <=180) |> 
    mutate(decade=case_when( startYear >=1920 & startYear < 1930 ~ "20s", 
                            startYear >= 1930 & startYear < 1940 ~ "30s",
                            startYear >= 1940 & startYear < 1950 ~ "40s",
                            startYear >= 1950 & startYear < 1960 ~ "50s",
                            startYear >= 1960 & startYear < 1970 ~ "60s",
                            startYear >= 1970 & startYear < 1980 ~ "70s"))
  
  mv_filt

# A tibble: 5,651 × 11
   tconst   titleType primaryTitle startYear runtimeMinutes genres averageRating
   <chr>    <chr>     <chr>            <dbl>          <dbl> <chr>          <dbl>
 1 tt00103… movie     The Cabinet…      1920             76 Fanta…           8.1
 2 tt00110… movie     Leaves From…      1920            167 Drama            6.7
 3 tt00111… movie     Dr. Jekyll …      1920             82 Drama…           7  
 4 tt00112… movie     The Golem         1920             76 Fanta…           7.2
 5 tt00113… movie     The Last of…      1920             73 Actio…           6.7
 6 tt00114… movie     The Mark of…      1920            107 Adven…           7.1
 7 tt00115… movie     The Penalty       1920             90 Crime…           7.4
 8 tt00116… movie     The Saphead       1920             77 Comedy           6.2
 9 tt00118… movie     Way Down Ea…      1920            145 Drama…           7.4
10 tt00118… movie     Why Change …      1920             90 Comed…           6.7
# ℹ 5,641 more rows
# ℹ 4 more variables: numVotes <dbl>, nconst <chr>, director <chr>,
#   decade <chr>
…
